{
	"DB_STRINGS":
	{
		"CONNECT_USER" : "RDC_Admin",
		"CONNECT_HOST":"aws-a0022-usw2-1b-q-rds-shrd-rdm-pgs01.cg9fhljijsjc.us-west-2.rds.amazonaws.com",
		"CONNECT_PASSWORD":"zsa!1800",
		"DATABASE_NAME" : "a1_q022rdcsql01"
	},
	"AWS":
	{
		"AWS_BUCKET_NAME":"aws-a0047-usw2-00-q-s3b-shrd-rdc-data",
		"AWS_ASSUME_ROLE":"arn:aws:iam::590989016449:role/aws-a0000-usw2-00-q-rol-shrd-rdc-crossaccountlambda01dr",
		"ROLE_DURATION_HRS": 12,
		"AWS_SECRETS_MANAGER_KEY_FOR_IAM_USER": "arn:aws:secretsmanager:us-west-2:783005340583:secret:aws-a0022-usw2-00-d-smr-shrd-rdc-key01-9whb0B",
		"AWS_SERVICE_CATALOG_ROLE": "arn:aws:iam::590989016449:role/aws-a0000-usw2-00-t-rol-shrd-opt-servicecatalog01",
		"S3_ENV_BUCKET":"aws-a0022-usw2-00-q-s3b-shrd-rdc-env-variables",
		"S3_UI_BUCKET":"rdc-dr01.revo.qa.zsservices.com"
	},
	"IDM":
	{
		"IDM_USER_NAME": "RWBServiceAccount",
		"IDM_PASSWORD": "g6s5XV7eg1bmTDg719-AMw",
		"IDM_BASE_URL": "https://idm-dr01.qa.zsservices.com/REVO/IdentityManager/app/Service/Data/v1.svc/",
		"IDM_URL":"https://idm-dr01.qa.zsservices.com/REVO/IdentityManager/app",
		"SERVICE_URL":"ApplicationRegistry/Launchbar.ashx",
		"TOKEN_SIGNATURE_SECRET" : "efghijklmnopqrstuvwxyz0123456789",
		"COOKIE_ENCRYPTION_KEY" : "8qNLqf56wEAP+/Vc+lDJOtEM1GEXA/J0koOE7Y0eSyo=",
		"IDM_OAUTH_ENDPOINT" : "https://idm-dr01.qa.zsservices.com/REVO/IdentityManager/app/OAuthServices/api/OAuth2Token",
		"IDM_MEMBERSHIP_SERVICE_ENDPOINT" : "https://idm-dr01.qa.zsservices.com/REVO/IdentityManager/app/Service/MembershipService.asmx",
		"COOKIE_NAME" : ".AWS.IdentityManager.IDM.OAuth",
		"BASIC_AUTH_HEADER" : "Basic UldCU2VydmljZUFjY291bnQ6ZzZzNVhWN2VnMWJtVERnNzE5LUFNdw==",
		"LeewayTime": 60
	},
	"BATCH":
	{
		"JOB_DEFINITION":"arn:aws:batch:us-west-2:783005340583:job-definition/XYZ",
		"JOB_QUEUE":"arn:aws:batch:us-west-2:783005340583:job-queue/XYZ",
		"MULTIPART_THRESHOLD":16777216,
		"MAX_CONCURRENCY":10,
		"MULTIPART_CHUNKSIZE":16777216,
		"MAX_IO_QUEUE":10000,
		"HANG_STATE_TIMEOUT":10800
	},
	"RESOURCE_NAMING":
	{
		"PREFIX": "aws",
		"AWS_REGION": "us-west-2",
		"REGION_CODE": "usw2",
		"AVAILABILITY_ZONE": "1a",
		"ENVIRONMENT_INDEX": "q",
		"ACCOUNT_CODE": "a0047",
		"CLIENT": "cmpl",
		"PRODUCT": "rdc",
		"PRODUCT_NAME": ""
	},
	"SMTP":
	{
		"HOST": "10.121.0.205",
		"PORT": ""
	},
	"API_CONSTANTS":
	{
		"ATTACHMENT_COUNT": "5",
		"SEARCH_CONTENT_LIMIT": 5,
		"RESTRICTED_TERMS": ["For", "And", "The", "A", "An", "From", "Him", "His", "Her", "Their", "Our", "At", "Like", "Than", "Through", "Till", "Up", "Upon", "Until", "Under", "With", "Without", "To", "Of", "In", "Between", "Across", "Onto", "Through", "Near", "Within"]
	},
	"ACCOUNT_INFO":
	{
		"LAMBDA_ROLE_ARN": "arn:aws:iam::783005340583:role/aws-a0022-usw2-00-q-rol-shrd-rdc-lambda01dr",
		"ACCOUNT_NO": "590989016449",
		"IAM_USER_KEY_ARN": "arn:aws:iam::783005340583:user/aws-a0022-usw2-00-d-usr-shrd-rdc-usr01",
		"PROJECT_CODE": "9904ZS3610",
		"ACCOUNT_CODE": "a0022",
		"CLIENT": "shrd"
	},
	"OpticloudConstants":
	{
		"USERNAME" : "opticloud_qa",
		"PASSWORD" : "NDcyZjJkMjE0",
		"CLIENT_ID" : "6kfu6s8dn1219pg6cetjusf2u9",
		"SERVICE_CODE" : "svc",
		"PRODUCT_NAME" : "redshift-manage-sso-group",
		"ENVIRONMENT_INDEX" : "dev"
	},
	"GlossaryConfig": {
		"WORD_START_ACCEPTABLE_CHARS": [" ", ",", ".", ">", "<" ,"?", "~", "!", "&", "*", "\"", "'", "\\", "/", "(",
		")", "{", "}", "[", "]", ";", ":", "-", "&", "~", "|"],
		"WORD_END_ACCEPTABLE_CHARS": [" ", ",", ".", ">", "<" ,"?", "~", "!", "&", "*", "\"", "'", "\\", "/", "(",
		")", "{", "}", "[", "]", ";", ":", "-", "&", "~", "|"]
	}
}